0 0 0 0 160 0xf00306800
0 0 0 0 176 0xf00306c00
0 0 0 0 192 0xf00303000
0 0 0 0 208 0xf00303400
0 0 0 0 224 0xf00303800
0 0 0 0 240 0xf00303c00
0 0 0 0 96 0xf00301800
0 0 0 0 112 0xf00301c00
0 0 0 0 160 0xf00302800
0 0 0 0 176 0xf00302c00
0 0 0 0 0 0xf00300000
0 0 0 0 16 0xf00300400
0 0 0 0 192 0xf00303000
0 0 0 0 208 0xf00303400
0 0 0 0 224 0xf00307800
0 0 0 0 240 0xf00307c00
0 0 0 0 64 0xf00301000
0 0 0 0 80 0xf00301400
0 0 0 0 0 0xf00304000
0 0 0 0 16 0xf00304400
0 0 0 0 224 0xf00303800
0 0 0 0 240 0xf00303c00
0 0 0 0 160 0xf00302800
0 0 0 0 176 0xf00302c00
0 0 0 0 128 0xf00302000
0 0 0 0 144 0xf00302400
0 0 0 0 32 0xf00304800
0 0 0 0 48 0xf00304c00
0 0 0 0 64 0xf00301000
0 0 0 0 80 0xf00301400
0 0 0 0 128 0xf00306000
0 0 0 0 144 0xf00306400
0 0 0 0 96 0xf00305800
0 0 0 0 112 0xf00305c00
0 0 0 0 64 0xf00305000
0 0 0 0 80 0xf00305400
0 0 0 0 192 0xf00307000
0 0 0 0 208 0xf00307400
0 0 0 0 96 0xf00301800
0 0 0 0 112 0xf00301c00
0 0 0 0 32 0xf00300800
0 0 0 0 48 0xf00300c00
0 0 0 0 0 0xf00300000
0 0 0 0 16 0xf00300400
0 0 0 0 128 0xf00302000
0 0 0 0 144 0xf00302400
1 0 0 0 64 0xf0040f100
1 0 0 0 80 0xf00412d00
1 0 0 0 160 0xf00425900
1 0 0 0 176 0xf00429500
1 0 0 0 32 0xf00407900
1 0 0 0 48 0xf0040b500
1 0 0 0 192 0xf0042d100
1 0 0 0 208 0xf00430d00
1 0 0 0 224 0xf00434900
1 0 0 0 240 0xf00438500
1 0 0 0 0 0xf00400100
1 0 0 0 16 0xf00403d00
1 0 0 0 128 0xf0041e100
1 0 0 0 144 0xf00421d00
1 0 0 0 96 0xf00416900
1 0 0 0 112 0xf0041a500
1 0 0 0 64 0xf0040f280
1 0 0 0 80 0xf00412e80
1 0 0 0 0 0xf00400280
1 0 0 0 16 0xf00403e80
1 0 0 0 32 0xf00407a80
1 0 0 0 48 0xf0040b680
1 0 0 0 128 0xf0041e280
1 0 0 0 144 0xf00421e80
1 0 0 0 224 0xf00434a80
1 0 0 0 240 0xf00438680
1 0 0 0 192 0xf0042d280
1 0 0 0 208 0xf00430e80
1 0 0 0 96 0xf00416a80
1 0 0 0 112 0xf0041a680
1 0 0 0 160 0xf00425a80
1 0 0 0 176 0xf00429680
0 0 0 1 192 0xf00303000
0 0 0 1 208 0xf00303400
0 0 0 1 0 0xf00300000
0 0 0 1 16 0xf00300400
0 0 0 1 32 0xf00300800
0 0 0 1 48 0xf00300c00
0 0 0 1 96 0xf00301800
0 0 0 1 112 0xf00301c00
0 0 0 1 160 0xf00302800
0 0 0 1 176 0xf00302c00
0 0 0 1 64 0xf00301000
0 0 0 1 80 0xf00301400
0 0 0 1 224 0xf00303800
0 0 0 1 240 0xf00303c00
0 0 0 1 128 0xf00302000
0 0 0 1 144 0xf00302400
1 0 0 0 64 0xf0040f480
1 0 0 0 80 0xf00413080
1 0 0 0 0 0xf00400480
1 0 0 0 16 0xf00404080
1 0 0 0 96 0xf00416c80
1 0 0 0 112 0xf0041a880
0 0 0 1 32 0xf00304800
0 0 0 1 48 0xf00304c00
0 0 0 1 96 0xf00305800
0 0 0 1 112 0xf00305c00
0 0 0 1 224 0xf00307800
0 0 0 1 240 0xf00307c00
0 0 0 1 160 0xf00306800
0 0 0 1 176 0xf00306c00
0 0 0 1 0 0xf00304000
0 0 0 1 16 0xf00304400
0 0 0 1 192 0xf00307000
0 0 0 1 208 0xf00307400
1 0 0 0 128 0xf0041e480
1 0 0 0 144 0xf00422080
1 0 0 0 192 0xf0042d480
1 0 0 0 208 0xf00431080
0 0 0 1 64 0xf00305000
0 0 0 1 80 0xf00305400
1 0 0 0 32 0xf00407c80
1 0 0 0 48 0xf0040b880
1 0 0 0 160 0xf00425c80
1 0 0 0 176 0xf00429880
1 0 0 0 224 0xf00434c80
1 0 0 0 240 0xf00438880
1 0 0 1 128 0xf0045a100
1 0 0 1 144 0xf0045dd00
1 0 0 1 0 0xf0043c100
1 0 0 1 16 0xf0043fd00
1 0 0 1 96 0xf00452900
1 0 0 1 112 0xf00456500
1 0 0 1 160 0xf00461900
1 0 0 1 176 0xf00465500
1 0 0 1 32 0xf00443900
1 0 0 1 48 0xf00447500
1 0 0 1 224 0xf00470900
1 0 0 1 240 0xf00474500
1 0 0 1 64 0xf0044b100
1 0 0 1 80 0xf0044ed00
1 0 0 1 192 0xf00469100
1 0 0 1 208 0xf0046cd00
1 0 0 1 160 0xf00461a80
1 0 0 1 176 0xf00465680
1 0 0 1 128 0xf0045a280
1 0 0 1 144 0xf0045de80
1 0 0 1 96 0xf00452a80
1 0 0 1 112 0xf00456680
1 0 0 1 32 0xf00443a80
1 0 0 1 48 0xf00447680
1 0 0 1 64 0xf0044b280
1 0 0 1 80 0xf0044ee80
1 0 0 1 0 0xf0043c280
1 0 0 1 16 0xf0043fe80
1 0 0 1 224 0xf00470a80
1 0 0 1 240 0xf00474680
0 0 0 2 96 0xf00301880
0 0 0 2 112 0xf00301c80
0 0 0 2 160 0xf00302880
0 0 0 2 176 0xf00302c80
1 0 0 1 192 0xf00469280
1 0 0 1 208 0xf0046ce80
0 0 0 2 224 0xf00303880
0 0 0 2 240 0xf00303c80
0 0 0 2 32 0xf00300880
0 0 0 2 48 0xf00300c80
0 0 0 2 128 0xf00302080
0 0 0 2 144 0xf00302480
0 0 0 2 192 0xf00303080
0 0 0 2 208 0xf00303480
0 0 0 2 0 0xf00300080
0 0 0 2 16 0xf00300480
0 0 0 2 64 0xf00301080
0 0 0 2 80 0xf00301480
0 0 0 1 32 0xf00300800
0 0 0 1 48 0xf00300c00
0 0 0 1 224 0xf00303800
0 0 0 1 240 0xf00303c00
0 0 0 1 160 0xf00302800
0 0 0 1 176 0xf00302c00
0 0 0 1 0 0xf00300000
0 0 0 1 16 0xf00300400
0 0 0 1 192 0xf00303000
0 0 0 1 208 0xf00303400
0 0 0 1 64 0xf00301000
0 0 0 1 80 0xf00301400
0 0 0 1 96 0xf00301800
0 0 0 1 112 0xf00301c00
0 0 0 1 128 0xf00302000
0 0 0 1 144 0xf00302400
1 0 0 2 160 0xf0049d900
1 0 0 2 176 0xf004a1500
1 0 0 2 0 0xf00478100
1 0 0 2 16 0xf0047bd00
1 0 0 2 96 0xf0048e900
1 0 0 2 112 0xf00492500
1 0 0 2 32 0xf0047f900
1 0 0 2 48 0xf00483500
1 0 0 2 64 0xf00487100
1 0 0 2 80 0xf0048ad00
1 0 0 2 128 0xf00496100
1 0 0 2 144 0xf00499d00
1 0 0 2 224 0xf004ac900
1 0 0 2 240 0xf004b0500
0 0 0 2 192 0xf00307080
0 0 0 2 208 0xf00307480
0 0 0 2 224 0xf00307880
0 0 0 2 240 0xf00307c80
0 0 0 2 32 0xf00304880
0 0 0 2 48 0xf00304c80
0 0 0 2 0 0xf00304080
0 0 0 2 16 0xf00304480
0 0 0 2 96 0xf00305880
0 0 0 2 112 0xf00305c80
0 0 0 2 160 0xf00306880
0 0 0 2 176 0xf00306c80
0 0 0 2 64 0xf00305080
0 0 0 2 80 0xf00305480
0 0 0 2 128 0xf00306080
0 0 0 2 144 0xf00306480
1 0 0 1 160 0xf00461c80
1 0 0 1 176 0xf00465880
1 0 0 1 0 0xf0043c480
1 0 0 1 16 0xf00440080
1 0 0 1 32 0xf00443c80
1 0 0 1 48 0xf00447880
1 0 0 1 128 0xf0045a480
1 0 0 1 144 0xf0045e080
0 0 0 3 192 0xf00303080
0 0 0 3 208 0xf00303480
0 0 0 3 0 0xf00300080
0 0 0 3 16 0xf00300480
0 0 0 3 224 0xf00303880
0 0 0 3 240 0xf00303c80
0 0 0 3 64 0xf00301080
0 0 0 3 80 0xf00301480
0 0 0 3 128 0xf00302080
0 0 0 3 144 0xf00302480
0 0 0 3 96 0xf00301880
0 0 0 3 112 0xf00301c80
0 0 0 3 160 0xf00302880
0 0 0 3 176 0xf00302c80
1 0 0 1 96 0xf00452c80
1 0 0 1 112 0xf00456880
0 0 0 3 32 0xf00300880
0 0 0 3 48 0xf00300c80
1 0 0 2 224 0xf004aca80
1 0 0 2 240 0xf004b0680
1 0 0 2 96 0xf0048ea80
1 0 0 2 112 0xf00492680
1 0 0 2 0 0xf00478280
1 0 0 2 16 0xf0047be80
1 0 0 2 192 0xf004a5280
1 0 0 2 208 0xf004a8e80
1 0 0 2 160 0xf0049da80
1 0 0 2 176 0xf004a1680
1 0 0 2 32 0xf0047fa80
1 0 0 2 48 0xf00483680
1 0 0 2 64 0xf00487280
1 0 0 2 80 0xf0048ae80
1 0 0 2 128 0xf00496280
1 0 0 2 144 0xf00499e80
1 0 0 1 224 0xf00470c80
1 0 0 1 240 0xf00474880
1 0 0 1 64 0xf0044b480
1 0 0 1 80 0xf0044f080
1 0 0 3 96 0xf004ca900
1 0 0 3 112 0xf004ce500
1 0 0 3 0 0xf004b4100
1 0 0 3 16 0xf004b7d00
1 0 0 3 32 0xf004bb900
1 0 0 3 48 0xf004bf500
1 0 0 3 160 0xf004d9900
1 0 0 3 176 0xf004dd500
1 0 0 3 64 0xf004c3100
1 0 0 3 80 0xf004c6d00
1 0 0 3 128 0xf004d2100
1 0 0 3 144 0xf004d5d00
1 0 0 3 224 0xf004e8900
1 0 0 3 240 0xf004ec500
1 0 0 1 192 0xf00469480
1 0 0 1 208 0xf0046d080
0 0 0 4 96 0xf00301900
0 0 0 4 112 0xf00301d00
0 0 0 4 32 0xf00300900
0 0 0 4 48 0xf00300d00
0 0 0 4 128 0xf00302100
0 0 0 4 144 0xf00302500
0 0 0 4 64 0xf00301100
0 0 0 4 80 0xf00301500
0 0 0 3 224 0xf00307880
0 0 0 3 240 0xf00307c80
0 0 0 3 160 0xf00306880
0 0 0 3 176 0xf00306c80
0 0 0 3 192 0xf00307080
0 0 0 3 208 0xf00307480
0 0 0 3 64 0xf00305080
0 0 0 3 80 0xf00305480
0 0 0 3 0 0xf00304080
0 0 0 3 16 0xf00304480
0 0 0 3 32 0xf00304880
0 0 0 3 48 0xf00304c80
0 0 0 4 0 0xf00300100
0 0 0 4 16 0xf00300500
0 0 0 4 192 0xf00303100
0 0 0 4 208 0xf00303500
0 0 0 3 96 0xf00305880
0 0 0 3 112 0xf00305c80
0 0 0 4 224 0xf00303900
0 0 0 4 240 0xf00303d00
0 0 0 3 128 0xf00306080
0 0 0 3 144 0xf00306480
1 0 0 4 64 0xf004ff100
1 0 0 4 80 0xf00502d00
1 0 0 4 96 0xf00506900
1 0 0 4 112 0xf0050a500
1 0 0 4 32 0xf004f7900
1 0 0 4 48 0xf004fb500
1 0 0 4 160 0xf00515900
1 0 0 4 176 0xf00519500
1 0 0 4 192 0xf0051d100
1 0 0 4 208 0xf00520d00
1 0 0 4 0 0xf004f0100
1 0 0 4 16 0xf004f3d00
1 0 0 4 128 0xf0050e100
1 0 0 4 144 0xf00511d00
1 0 0 4 224 0xf00524900
1 0 0 4 240 0xf00528500
1 0 0 3 32 0xf004bba80
1 0 0 3 48 0xf004bf680
1 0 0 3 64 0xf004c3280
1 0 0 3 80 0xf004c6e80
1 0 0 3 96 0xf004caa80
1 0 0 3 112 0xf004ce680
1 0 0 3 0 0xf004b4280
1 0 0 3 16 0xf004b7e80
1 0 0 3 128 0xf004d2280
1 0 0 3 144 0xf004d5e80
1 0 0 3 192 0xf004e1280
1 0 0 3 208 0xf004e4e80
1 0 0 3 160 0xf004d9a80
1 0 0 3 176 0xf004dd680
1 0 0 3 224 0xf004e8a80
1 0 0 3 240 0xf004ec680
0 0 0 5 64 0xf00301100
0 0 0 5 80 0xf00301500
0 0 0 5 192 0xf00303100
0 0 0 5 208 0xf00303500
0 0 0 5 32 0xf00300900
0 0 0 5 48 0xf00300d00
0 0 0 5 0 0xf00300100
0 0 0 5 16 0xf00300500
0 0 0 5 96 0xf00301900
0 0 0 5 112 0xf00301d00
0 0 0 5 128 0xf00302100
0 0 0 5 144 0xf00302500
0 0 0 5 160 0xf00302900
0 0 0 5 176 0xf00302d00
0 0 0 5 224 0xf00303900
0 0 0 5 240 0xf00303d00
0 0 0 2 128 0xf00302080
0 0 0 2 144 0xf00302480
0 0 0 2 64 0xf00301080
0 0 0 2 80 0xf00301480
0 0 0 2 32 0xf00300880
0 0 0 2 48 0xf00300c80
0 0 0 2 0 0xf00300080
0 0 0 2 16 0xf00300480
0 0 0 2 96 0xf00301880
0 0 0 2 112 0xf00301c80
0 0 0 2 224 0xf00303880
0 0 0 2 240 0xf00303c80
0 0 0 2 160 0xf00302880
0 0 0 2 176 0xf00302c80
0 0 0 2 192 0xf00303080
0 0 0 2 208 0xf00303480
1 0 0 5 128 0xf0054a100
1 0 0 5 144 0xf0054dd00
1 0 0 5 0 0xf0052c100
1 0 0 5 16 0xf0052fd00
1 0 0 5 64 0xf0053b100
1 0 0 5 80 0xf0053ed00
1 0 0 5 96 0xf00542900
1 0 0 5 112 0xf00546500
1 0 0 5 32 0xf00533900
1 0 0 5 48 0xf00537500
1 0 0 5 160 0xf00551900
1 0 0 5 176 0xf00555500
1 0 0 5 224 0xf00560900
1 0 0 5 240 0xf00564500
1 0 0 5 192 0xf00559100
1 0 0 5 208 0xf0055cd00
0 0 0 4 32 0xf00304900
0 0 0 4 48 0xf00304d00
0 0 0 4 160 0xf00306900
0 0 0 4 176 0xf00306d00
0 0 0 4 96 0xf00305900
0 0 0 4 112 0xf00305d00
0 0 0 4 192 0xf00307100
0 0 0 4 208 0xf00307500
0 0 0 4 224 0xf00307900
0 0 0 4 240 0xf00307d00
0 0 0 4 64 0xf00305100
0 0 0 4 80 0xf00305500
0 0 0 4 0 0xf00304100
0 0 0 4 16 0xf00304500
0 0 0 4 128 0xf00306100
0 0 0 4 144 0xf00306500
1 0 0 2 64 0xf00487480
1 0 0 2 80 0xf0048b080
1 0 0 2 32 0xf0047fc80
1 0 0 2 48 0xf00483880
0 0 0 6 224 0xf00303980
0 0 0 6 240 0xf00303d80
0 0 0 6 160 0xf00302980
0 0 0 6 176 0xf00302d80
0 0 0 6 128 0xf00302180
0 0 0 6 144 0xf00302580
0 0 0 6 32 0xf00300980
0 0 0 6 48 0xf00300d80
0 0 0 6 0 0xf00300180
0 0 0 6 16 0xf00300580
0 0 0 6 64 0xf00301180
0 0 0 6 80 0xf00301580
0 0 0 6 96 0xf00301980
0 0 0 6 112 0xf00301d80
0 0 0 6 192 0xf00303180
0 0 0 6 208 0xf00303580
1 0 0 4 0 0xf004f0280
1 0 0 4 16 0xf004f3e80
1 0 0 4 64 0xf004ff280
1 0 0 4 80 0xf00502e80
1 0 0 2 0 0xf00478480
1 0 0 2 16 0xf0047c080
1 0 0 2 96 0xf0048ec80
1 0 0 2 112 0xf00492880
1 0 0 4 128 0xf0050e280
1 0 0 4 144 0xf00511e80
1 0 0 4 32 0xf004f7a80
1 0 0 4 48 0xf004fb680
1 0 0 4 192 0xf0051d280
1 0 0 4 208 0xf00520e80
1 0 0 4 96 0xf00506a80
1 0 0 4 112 0xf0050a680
1 0 0 4 160 0xf00515a80
1 0 0 4 176 0xf00519680
1 0 0 2 128 0xf00496480
1 0 0 2 144 0xf0049a080
1 0 0 4 224 0xf00524a80
1 0 0 4 240 0xf00528680
1 0 0 2 192 0xf004a5480
1 0 0 2 208 0xf004a9080
1 0 0 2 224 0xf004acc80
1 0 0 2 240 0xf004b0880
1 0 0 6 0 0xf00568100
1 0 0 6 16 0xf0056bd00
1 0 0 6 160 0xf0058d900
1 0 0 6 176 0xf00591500
1 0 0 6 64 0xf00577100
1 0 0 6 80 0xf0057ad00
1 0 0 6 96 0xf0057e900
1 0 0 6 112 0xf00582500
1 0 0 6 128 0xf00586100
1 0 0 6 144 0xf00589d00
1 0 0 6 32 0xf0056f900
1 0 0 6 48 0xf00573500
1 0 0 6 224 0xf0059c900
1 0 0 6 240 0xf005a0500
1 0 0 6 192 0xf00595100
1 0 0 6 208 0xf00598d00
1 0 0 2 160 0xf0049dc80
1 0 0 2 176 0xf004a1880
0 0 0 5 224 0xf00307900
0 0 0 5 240 0xf00307d00
0 0 0 5 64 0xf00305100
0 0 0 5 80 0xf00305500
0 0 0 5 160 0xf00306900
0 0 0 5 176 0xf00306d00
0 0 0 7 64 0xf00301180
0 0 0 7 80 0xf00301580
0 0 0 5 0 0xf00304100
0 0 0 5 16 0xf00304500
0 0 0 5 192 0xf00307100
0 0 0 5 208 0xf00307500
0 0 0 7 32 0xf00300980
0 0 0 7 48 0xf00300d80
0 0 0 7 160 0xf00302980
0 0 0 7 176 0xf00302d80
0 0 0 7 224 0xf00303980
0 0 0 7 240 0xf00303d80
0 0 0 7 128 0xf00302180
0 0 0 7 144 0xf00302580
0 0 0 7 192 0xf00303180
0 0 0 7 208 0xf00303580
0 0 0 5 96 0xf00305900
0 0 0 5 112 0xf00305d00
0 0 0 5 128 0xf00306100
0 0 0 5 144 0xf00306500
0 0 0 7 0 0xf00300180
0 0 0 7 16 0xf00300580
0 0 0 7 96 0xf00301980
0 0 0 7 112 0xf00301d80
0 0 0 5 32 0xf00304900
0 0 0 5 48 0xf00304d00
0 0 0 3 224 0xf00303880
0 0 0 3 240 0xf00303c80
0 0 0 3 160 0xf00302880
0 0 0 3 176 0xf00302c80
0 0 0 3 0 0xf00300080
0 0 0 3 16 0xf00300480
0 0 0 3 96 0xf00301880
0 0 0 3 112 0xf00301c80
0 0 0 3 64 0xf00301080
0 0 0 3 80 0xf00301480
0 0 0 3 192 0xf00303080
0 0 0 3 208 0xf00303480
0 0 0 3 32 0xf00300880
0 0 0 3 48 0xf00300c80
0 0 0 3 128 0xf00302080
0 0 0 3 144 0xf00302480
1 0 0 7 64 0xf005b3100
1 0 0 7 80 0xf005b6d00
1 0 0 7 32 0xf005ab900
1 0 0 7 48 0xf005af500
1 0 0 7 0 0xf005a4100
1 0 0 7 16 0xf005a7d00
1 0 0 7 160 0xf005c9900
1 0 0 7 176 0xf005cd500
1 0 0 7 128 0xf005c2100
1 0 0 7 144 0xf005c5d00
1 0 0 7 224 0xf005d8900
1 0 0 7 240 0xf005dc500
1 0 0 7 192 0xf005d1100
1 0 0 7 208 0xf005d4d00
1 0 0 7 96 0xf005ba900
1 0 0 7 112 0xf005be500
0 0 0 8 224 0xf00303a00
0 0 0 8 240 0xf00303e00
1 0 0 5 96 0xf00542a80
1 0 0 5 112 0xf00546680
1 0 0 5 64 0xf0053b280
1 0 0 5 80 0xf0053ee80
0 0 0 8 32 0xf00300a00
0 0 0 8 48 0xf00300e00
0 0 0 8 160 0xf00302a00
0 0 0 8 176 0xf00302e00
0 0 0 8 192 0xf00303200
0 0 0 8 208 0xf00303600
0 0 0 8 128 0xf00302200
0 0 0 8 144 0xf00302600
0 0 0 8 0 0xf00300200
0 0 0 8 16 0xf00300600
1 0 0 5 192 0xf00559280
1 0 0 5 208 0xf0055ce80
0 0 0 8 64 0xf00301200
0 0 0 8 80 0xf00301600
0 0 0 8 96 0xf00301a00
0 0 0 8 112 0xf00301e00
1 0 0 5 160 0xf00551a80
1 0 0 5 176 0xf00555680
1 0 0 5 224 0xf00560a80
1 0 0 5 240 0xf00564680
1 0 0 5 128 0xf0054a280
1 0 0 5 144 0xf0054de80
1 0 0 5 0 0xf0052c280
1 0 0 5 16 0xf0052fe80
1 0 0 5 32 0xf00533a80
1 0 0 5 48 0xf00537680
1 0 0 3 64 0xf004c3480
1 0 0 3 80 0xf004c7080
1 0 0 3 160 0xf004d9c80
1 0 0 3 176 0xf004dd880
1 0 0 3 192 0xf004e1480
1 0 0 3 208 0xf004e5080
1 0 0 3 0 0xf004b4480
1 0 0 3 16 0xf004b8080
1 0 0 3 128 0xf004d2480
1 0 0 3 144 0xf004d6080
1 0 0 3 224 0xf004e8c80
1 0 0 3 240 0xf004ec880
1 0 0 3 32 0xf004bbc80
1 0 0 3 48 0xf004bf880
1 0 0 3 96 0xf004cac80
1 0 0 3 112 0xf004ce880
1 0 0 8 64 0xf005ef100
1 0 0 8 80 0xf005f2d00
1 0 0 8 0 0xf005e0100
1 0 0 8 16 0xf005e3d00
1 0 0 8 160 0xf00605900
1 0 0 8 176 0xf00609500
1 0 0 8 32 0xf005e7900
1 0 0 8 48 0xf005eb500
1 0 0 8 192 0xf0060d100
1 0 0 8 208 0xf00610d00
1 0 0 8 96 0xf005f6900
1 0 0 8 112 0xf005fa500
1 0 0 8 128 0xf005fe100
1 0 0 8 144 0xf00601d00
1 0 0 8 224 0xf00614900
1 0 0 8 240 0xf00618500
0 0 0 6 32 0xf00304980
0 0 0 6 48 0xf00304d80
0 0 0 6 192 0xf00307180
0 0 0 6 208 0xf00307580
0 0 0 6 128 0xf00306180
0 0 0 6 144 0xf00306580
0 0 0 6 64 0xf00305180
0 0 0 6 80 0xf00305580
0 0 0 6 0 0xf00304180
0 0 0 6 16 0xf00304580
0 0 0 6 224 0xf00307980
0 0 0 6 240 0xf00307d80
0 0 0 6 96 0xf00305980
0 0 0 6 112 0xf00305d80
0 0 0 6 160 0xf00306980
0 0 0 6 176 0xf00306d80
0 0 0 9 32 0xf00300a00
0 0 0 9 48 0xf00300e00
0 0 0 9 96 0xf00301a00
0 0 0 9 112 0xf00301e00
0 0 0 9 224 0xf00303a00
0 0 0 9 240 0xf00303e00
0 0 0 9 64 0xf00301200
0 0 0 9 80 0xf00301600
0 0 0 9 128 0xf00302200
0 0 0 9 144 0xf00302600
0 0 0 9 160 0xf00302a00
0 0 0 9 176 0xf00302e00
0 0 0 9 192 0xf00303200
0 0 0 9 208 0xf00303600
0 0 0 9 0 0xf00300200
0 0 0 9 16 0xf00300600
0 0 0 4 64 0xf00301100
0 0 0 4 80 0xf00301500
0 0 0 4 96 0xf00301900
0 0 0 4 112 0xf00301d00
0 0 0 4 160 0xf00302900
0 0 0 4 176 0xf00302d00
0 0 0 4 32 0xf00300900
0 0 0 4 48 0xf00300d00
0 0 0 4 128 0xf00302100
0 0 0 4 144 0xf00302500
0 0 0 4 224 0xf00303900
0 0 0 4 240 0xf00303d00
0 0 0 4 0 0xf00300100
0 0 0 4 16 0xf00300500
0 0 0 4 192 0xf00303100
0 0 0 4 208 0xf00303500
1 0 0 9 32 0xf00623900
1 0 0 9 48 0xf00627500
1 0 0 9 96 0xf00632900
1 0 0 9 112 0xf00636500
1 0 0 9 0 0xf0061c100
1 0 0 9 16 0xf0061fd00
1 0 0 9 64 0xf0062b100
1 0 0 9 80 0xf0062ed00
1 0 0 9 128 0xf0063a100
1 0 0 9 144 0xf0063dd00
1 0 0 9 160 0xf00641900
1 0 0 9 176 0xf00645500
1 0 0 9 224 0xf00650900
1 0 0 9 240 0xf00654500
1 0 0 6 160 0xf0058da80
1 0 0 6 176 0xf00591680
1 0 0 9 192 0xf00649100
1 0 0 9 208 0xf0064cd00
1 0 0 6 224 0xf0059ca80
1 0 0 6 240 0xf005a0680
1 0 0 6 0 0xf00568280
1 0 0 6 16 0xf0056be80
1 0 0 6 96 0xf0057ea80
1 0 0 6 112 0xf00582680
1 0 0 6 64 0xf00577280
1 0 0 6 80 0xf0057ae80
1 0 0 6 32 0xf0056fa80
1 0 0 6 48 0xf00573680
1 0 0 6 128 0xf00586280
1 0 0 6 144 0xf00589e80
1 0 0 6 192 0xf00595280
1 0 0 6 208 0xf00598e80
0 0 0 10 96 0xf00301a80
0 0 0 10 112 0xf00301e80
0 0 0 10 32 0xf00300a80
0 0 0 10 48 0xf00300e80
0 0 0 10 0 0xf00300280
0 0 0 10 16 0xf00300680
0 0 0 10 224 0xf00303a80
0 0 0 10 240 0xf00303e80
0 0 0 10 128 0xf00302280
0 0 0 10 144 0xf00302680
0 0 0 10 64 0xf00301280
0 0 0 10 80 0xf00301680
0 0 0 10 160 0xf00302a80
0 0 0 10 176 0xf00302e80
0 0 0 10 192 0xf00303280
0 0 0 10 208 0xf00303680
1 0 0 4 64 0xf004ff480
1 0 0 4 80 0xf00503080
1 0 0 4 0 0xf004f0480
1 0 0 4 16 0xf004f4080
1 0 0 10 32 0xf0065f900
1 0 0 10 48 0xf00663500
1 0 0 10 96 0xf0066e900
1 0 0 10 112 0xf00672500
1 0 0 10 0 0xf00658100
1 0 0 10 16 0xf0065bd00
1 0 0 10 160 0xf0067d900
1 0 0 10 176 0xf00681500
1 0 0 10 192 0xf00685100
1 0 0 10 208 0xf00688d00
1 0 0 10 64 0xf00667100
1 0 0 10 80 0xf0066ad00
1 0 0 10 128 0xf00676100
1 0 0 10 144 0xf00679d00
1 0 0 4 96 0xf00506c80
1 0 0 4 112 0xf0050a880
1 0 0 4 192 0xf0051d480
1 0 0 4 208 0xf00521080
1 0 0 4 160 0xf00515c80
1 0 0 4 176 0xf00519880
1 0 0 10 224 0xf0068c900
1 0 0 10 240 0xf00690500
1 0 0 4 128 0xf0050e480
1 0 0 4 144 0xf00512080
1 0 0 4 224 0xf00524c80
1 0 0 4 240 0xf00528880
0 0 0 7 32 0xf00304980
0 0 0 7 48 0xf00304d80
0 0 0 7 64 0xf00305180
0 0 0 7 80 0xf00305580
0 0 0 7 0 0xf00304180
0 0 0 7 16 0xf00304580
0 0 0 7 192 0xf00307180
0 0 0 7 208 0xf00307580
0 0 0 7 128 0xf00306180
0 0 0 7 144 0xf00306580
0 0 0 7 160 0xf00306980
0 0 0 7 176 0xf00306d80
0 0 0 7 96 0xf00305980
0 0 0 7 112 0xf00305d80
0 0 0 7 224 0xf00307980
0 0 0 7 240 0xf00307d80
0 0 0 11 32 0xf00300a80
0 0 0 11 48 0xf00300e80
0 0 0 11 192 0xf00303280
0 0 0 11 208 0xf00303680
0 0 0 11 224 0xf00303a80
0 0 0 11 240 0xf00303e80
0 0 0 11 0 0xf00300280
0 0 0 11 16 0xf00300680
0 0 0 11 128 0xf00302280
0 0 0 11 144 0xf00302680
0 0 0 11 160 0xf00302a80
0 0 0 11 176 0xf00302e80
0 0 0 11 96 0xf00301a80
0 0 0 11 112 0xf00301e80
1 0 0 7 64 0xf005b3280
1 0 0 7 80 0xf005b6e80
1 0 0 7 0 0xf005a4280
1 0 0 7 16 0xf005a7e80
1 0 0 7 32 0xf005aba80
1 0 0 7 48 0xf005af680
1 0 0 7 128 0xf005c2280
1 0 0 7 144 0xf005c5e80
1 0 0 7 192 0xf005d1280
1 0 0 7 208 0xf005d4e80
1 0 0 7 96 0xf005baa80
1 0 0 7 112 0xf005be680
1 0 0 7 160 0xf005c9a80
1 0 0 7 176 0xf005cd680
1 0 0 7 224 0xf005d8a80
1 0 0 7 240 0xf005dc680
1 0 0 11 32 0xf0069b900
1 0 0 11 48 0xf0069f500
1 0 0 11 0 0xf00694100
1 0 0 11 16 0xf00697d00
1 0 0 11 128 0xf006b2100
1 0 0 11 144 0xf006b5d00
1 0 0 11 64 0xf006a3100
1 0 0 11 80 0xf006a6d00
1 0 0 11 224 0xf006c8900
1 0 0 11 240 0xf006cc500
1 0 0 11 160 0xf006b9900
1 0 0 11 176 0xf006bd500
1 0 0 11 96 0xf006aa900
1 0 0 11 112 0xf006ae500
1 0 0 11 192 0xf006c1100
1 0 0 11 208 0xf006c4d00
0 0 0 12 160 0xf00302b00
0 0 0 12 176 0xf00302f00
0 0 0 12 64 0xf00301300
0 0 0 12 80 0xf00301700
0 0 0 12 224 0xf00303b00
0 0 0 12 240 0xf00303f00
0 0 0 12 128 0xf00302300
0 0 0 12 144 0xf00302700
0 0 0 12 32 0xf00300b00
0 0 0 12 48 0xf00300f00
0 0 0 12 96 0xf00301b00
0 0 0 12 112 0xf00301f00
0 0 0 12 0 0xf00300300
0 0 0 12 16 0xf00300700
0 0 0 12 192 0xf00303300
0 0 0 12 208 0xf00303700
0 0 0 8 64 0xf00305200
0 0 0 8 80 0xf00305600
0 0 0 8 32 0xf00304a00
0 0 0 8 48 0xf00304e00
0 0 0 8 96 0xf00305a00
0 0 0 8 112 0xf00305e00
0 0 0 8 192 0xf00307200
0 0 0 8 208 0xf00307600
0 0 0 8 128 0xf00306200
0 0 0 8 144 0xf00306600
0 0 0 8 224 0xf00307a00
0 0 0 8 240 0xf00307e00
0 0 0 8 0 0xf00304200
0 0 0 8 16 0xf00304600
0 0 0 8 160 0xf00306a00
0 0 0 8 176 0xf00306e00
0 0 0 5 0 0xf00300100
0 0 0 5 16 0xf00300500
0 0 0 5 128 0xf00302100
0 0 0 5 144 0xf00302500
0 0 0 5 64 0xf00301100
0 0 0 5 80 0xf00301500
0 0 0 5 192 0xf00303100
0 0 0 5 208 0xf00303500
0 0 0 5 160 0xf00302900
0 0 0 5 176 0xf00302d00
0 0 0 5 224 0xf00303900
0 0 0 5 240 0xf00303d00
0 0 0 5 96 0xf00301900
0 0 0 5 112 0xf00301d00
0 0 0 5 32 0xf00300900
0 0 0 5 48 0xf00300d00
1 0 0 12 0 0xf006d0100
1 0 0 12 16 0xf006d3d00
1 0 0 12 32 0xf006d7900
1 0 0 12 48 0xf006db500
1 0 0 12 128 0xf006ee100
1 0 0 12 144 0xf006f1d00
1 0 0 12 64 0xf006df100
1 0 0 12 80 0xf006e2d00
1 0 0 12 96 0xf006e6900
1 0 0 12 112 0xf006ea500
1 0 0 12 160 0xf006f5900
1 0 0 12 176 0xf006f9500
1 0 0 12 192 0xf006fd100
1 0 0 12 208 0xf00700d00
1 0 0 12 224 0xf00704900
1 0 0 12 240 0xf00708500
1 0 0 8 192 0xf0060d280
1 0 0 8 208 0xf00610e80
1 0 0 8 32 0xf005e7a80
1 0 0 8 48 0xf005eb680
1 0 0 8 96 0xf005f6a80
1 0 0 8 112 0xf005fa680
1 0 0 8 0 0xf005e0280
1 0 0 8 16 0xf005e3e80
0 0 0 13 128 0xf00302300
0 0 0 13 144 0xf00302700
0 0 0 13 160 0xf00302b00
0 0 0 13 176 0xf00302f00
0 0 0 13 224 0xf00303b00
0 0 0 13 240 0xf00303f00
0 0 0 13 96 0xf00301b00
0 0 0 13 112 0xf00301f00
0 0 0 13 0 0xf00300300
0 0 0 13 16 0xf00300700
1 0 0 8 160 0xf00605a80
1 0 0 8 176 0xf00609680
0 0 0 13 64 0xf00301300
0 0 0 13 80 0xf00301700
0 0 0 13 192 0xf00303300
0 0 0 13 208 0xf00303700
0 0 0 13 32 0xf00300b00
0 0 0 13 48 0xf00300f00
1 0 0 8 224 0xf00614a80
1 0 0 8 240 0xf00618680
1 0 0 5 96 0xf00542c80
1 0 0 5 112 0xf00546880
1 0 0 5 32 0xf00533c80
1 0 0 5 48 0xf00537880
1 0 0 13 160 0xf00731900
1 0 0 13 176 0xf00735500
1 0 0 13 0 0xf0070c100
1 0 0 13 16 0xf0070fd00
1 0 0 13 224 0xf00740900
1 0 0 13 240 0xf00744500
1 0 0 13 32 0xf00713900
1 0 0 13 48 0xf00717500
1 0 0 13 64 0xf0071b100
1 0 0 13 80 0xf0071ed00
1 0 0 13 128 0xf0072a100
1 0 0 13 144 0xf0072dd00
1 0 0 13 96 0xf00722900
1 0 0 13 112 0xf00726500
1 0 0 13 192 0xf00739100
1 0 0 13 208 0xf0073cd00
1 0 0 5 64 0xf0053b480
1 0 0 5 80 0xf0053f080
0 0 0 9 32 0xf00304a00
0 0 0 9 48 0xf00304e00
0 0 0 9 96 0xf00305a00
0 0 0 9 112 0xf00305e00
0 0 0 9 160 0xf00306a00
0 0 0 9 176 0xf00306e00
0 0 0 9 224 0xf00307a00
0 0 0 9 240 0xf00307e00
0 0 0 9 192 0xf00307200
0 0 0 9 208 0xf00307600
0 0 0 9 64 0xf00305200
0 0 0 9 80 0xf00305600
1 0 0 5 128 0xf0054a480
1 0 0 5 144 0xf0054e080
0 0 0 14 32 0xf00300b80
0 0 0 14 48 0xf00300f80
0 0 0 14 96 0xf00301b80
0 0 0 14 112 0xf00301f80
0 0 0 14 224 0xf00303b80
0 0 0 14 240 0xf00303f80
0 0 0 9 0 0xf00304200
0 0 0 9 16 0xf00304600
1 0 0 5 192 0xf00559480
1 0 0 5 208 0xf0055d080
1 0 0 5 0 0xf0052c480
1 0 0 5 16 0xf00530080
0 0 0 14 192 0xf00303380
0 0 0 14 208 0xf00303780
0 0 0 14 128 0xf00302380
0 0 0 14 144 0xf00302780
1 0 0 5 160 0xf00551c80
1 0 0 5 176 0xf00555880
0 0 0 9 128 0xf00306200
0 0 0 9 144 0xf00306600
0 0 0 14 64 0xf00301380
0 0 0 14 80 0xf00301780
0 0 0 14 0 0xf00300380
0 0 0 14 16 0xf00300780
1 0 0 14 96 0xf0075e900
1 0 0 14 112 0xf00762500
1 0 0 14 0 0xf00748100
1 0 0 14 16 0xf0074bd00
1 0 0 14 32 0xf0074f900
1 0 0 14 48 0xf00753500
1 0 0 14 64 0xf00757100
1 0 0 14 80 0xf0075ad00
1 0 0 14 160 0xf0076d900
1 0 0 14 176 0xf00771500
1 0 0 14 192 0xf00775100
1 0 0 14 208 0xf00778d00
1 0 0 14 224 0xf0077c900
1 0 0 14 240 0xf00780500
1 0 0 14 128 0xf00766100
1 0 0 14 144 0xf00769d00
1 0 0 9 0 0xf0061c280
1 0 0 9 16 0xf0061fe80
1 0 0 9 192 0xf00649280
1 0 0 9 208 0xf0064ce80
1 0 0 9 64 0xf0062b280
1 0 0 9 80 0xf0062ee80
1 0 0 9 160 0xf00641a80
1 0 0 9 176 0xf00645680
1 0 0 9 96 0xf00632a80
1 0 0 9 112 0xf00636680
1 0 0 9 32 0xf00623a80
1 0 0 9 48 0xf00627680
1 0 0 9 224 0xf00650a80
1 0 0 9 240 0xf00654680
0 0 0 15 64 0xf00301380
0 0 0 15 80 0xf00301780
0 0 0 15 128 0xf00302380
0 0 0 15 144 0xf00302780
0 0 0 15 160 0xf00302b80
0 0 0 15 176 0xf00302f80
0 0 0 15 192 0xf00303380
0 0 0 15 208 0xf00303780
0 0 0 15 224 0xf00303b80
0 0 0 15 240 0xf00303f80
0 0 0 15 0 0xf00300380
0 0 0 15 16 0xf00300780
1 0 0 9 128 0xf0063a280
1 0 0 9 144 0xf0063de80
0 0 0 15 96 0xf00301b80
0 0 0 15 112 0xf00301f80
0 0 0 15 32 0xf00300b80
0 0 0 15 48 0xf00300f80
0 0 0 6 64 0xf00301180
0 0 0 6 80 0xf00301580
0 0 0 6 0 0xf00300180
0 0 0 6 16 0xf00300580
0 0 0 6 128 0xf00302180
0 0 0 6 144 0xf00302580
0 0 0 6 192 0xf00303180
0 0 0 6 208 0xf00303580
0 0 0 6 32 0xf00300980
0 0 0 6 48 0xf00300d80
0 0 0 6 96 0xf00301980
0 0 0 6 112 0xf00301d80
0 0 0 6 224 0xf00303980
0 0 0 6 240 0xf00303d80
0 0 0 6 160 0xf00302980
0 0 0 6 176 0xf00302d80
1 0 0 15 64 0xf00793100
1 0 0 15 80 0xf00796d00
1 0 0 15 0 0xf00784100
1 0 0 15 16 0xf00787d00
1 0 0 15 96 0xf0079a900
1 0 0 15 112 0xf0079e500
1 0 0 15 160 0xf007a9900
1 0 0 15 176 0xf007ad500
1 0 0 15 32 0xf0078b900
1 0 0 15 48 0xf0078f500
1 0 0 15 128 0xf007a2100
1 0 0 15 144 0xf007a5d00
1 0 0 15 224 0xf007b8900
1 0 0 15 240 0xf007bc500
1 0 0 15 192 0xf007b1100
1 0 0 15 208 0xf007b4d00
0 0 0 10 32 0xf00304a80
0 0 0 10 48 0xf00304e80
0 0 0 10 0 0xf00304280
0 0 0 10 16 0xf00304680
0 0 0 10 64 0xf00305280
0 0 0 10 80 0xf00305680
0 0 0 10 192 0xf00307280
0 0 0 10 208 0xf00307680
0 0 0 10 128 0xf00306280
0 0 0 10 144 0xf00306680
0 0 0 10 160 0xf00306a80
0 0 0 10 176 0xf00306e80
0 0 0 10 96 0xf00305a80
0 0 0 10 112 0xf00305e80
0 0 0 10 224 0xf00307a80
0 0 0 10 240 0xf00307e80
1 0 0 10 32 0xf0065fa80
1 0 0 10 48 0xf00663680
1 0 0 10 96 0xf0066ea80
1 0 0 10 112 0xf00672680
1 0 0 10 64 0xf00667280
1 0 0 10 80 0xf0066ae80
1 0 0 10 0 0xf00658280
1 0 0 10 16 0xf0065be80
1 0 0 10 160 0xf0067da80
1 0 0 10 176 0xf00681680
1 0 0 6 0 0xf00568480
1 0 0 6 16 0xf0056c080
1 0 0 10 192 0xf00685280
1 0 0 10 208 0xf00688e80
1 0 0 10 224 0xf0068ca80
1 0 0 10 240 0xf00690680
1 0 0 10 128 0xf00676280
1 0 0 10 144 0xf00679e80
1 0 0 6 64 0xf00577480
1 0 0 6 80 0xf0057b080
1 0 0 6 96 0xf0057ec80
1 0 0 6 112 0xf00582880
1 0 0 6 32 0xf0056fc80
1 0 0 6 48 0xf00573880
1 0 0 6 128 0xf00586480
1 0 0 6 144 0xf0058a080
1 0 0 6 224 0xf0059cc80
1 0 0 6 240 0xf005a0880
1 0 0 6 160 0xf0058dc80
1 0 0 6 176 0xf00591880
1 0 0 6 192 0xf00595480
1 0 0 6 208 0xf00599080
0 0 0 11 160 0xf00306a80
0 0 0 11 176 0xf00306e80
0 0 0 11 224 0xf00307a80
0 0 0 11 240 0xf00307e80
0 0 0 11 128 0xf00306280
0 0 0 11 144 0xf00306680
0 0 0 11 192 0xf00307280
0 0 0 11 208 0xf00307680
0 0 0 11 64 0xf00305280
0 0 0 11 80 0xf00305680
0 0 0 11 32 0xf00304a80
0 0 0 11 48 0xf00304e80
0 0 0 11 0 0xf00304280
0 0 0 11 16 0xf00304680
0 0 0 11 96 0xf00305a80
0 0 0 11 112 0xf00305e80
0 0 0 7 0 0xf00300180
0 0 0 7 16 0xf00300580
0 0 0 7 128 0xf00302180
0 0 0 7 144 0xf00302580
0 0 0 7 64 0xf00301180
0 0 0 7 80 0xf00301580
0 0 0 7 96 0xf00301980
0 0 0 7 112 0xf00301d80
1 0 0 11 128 0xf006b2280
1 0 0 11 144 0xf006b5e80
0 0 0 7 160 0xf00302980
0 0 0 7 176 0xf00302d80
0 0 0 7 32 0xf00300980
0 0 0 7 48 0xf00300d80
1 0 0 11 224 0xf006c8a80
1 0 0 11 240 0xf006cc680
1 0 0 11 64 0xf006a3280
1 0 0 11 80 0xf006a6e80
0 0 0 7 192 0xf00303180
0 0 0 7 208 0xf00303580
1 0 0 11 160 0xf006b9a80
1 0 0 11 176 0xf006bd680
1 0 0 11 0 0xf00694280
1 0 0 11 16 0xf00697e80
1 0 0 11 192 0xf006c1280
1 0 0 11 208 0xf006c4e80
1 0 0 11 96 0xf006aaa80
1 0 0 11 112 0xf006ae680
0 0 0 12 32 0xf00304b00
0 0 0 12 48 0xf00304f00
0 0 0 12 0 0xf00304300
0 0 0 12 16 0xf00304700
0 0 0 12 128 0xf00306300
0 0 0 12 144 0xf00306700
0 0 0 12 160 0xf00306b00
0 0 0 12 176 0xf00306f00
0 0 0 12 192 0xf00307300
0 0 0 12 208 0xf00307700
0 0 0 12 224 0xf00307b00
0 0 0 12 240 0xf00307f00
0 0 0 12 96 0xf00305b00
0 0 0 12 112 0xf00305f00
0 0 0 12 64 0xf00305300
0 0 0 12 80 0xf00305700
1 0 0 7 128 0xf005c2480
1 0 0 7 144 0xf005c6080
1 0 0 7 192 0xf005d1480
1 0 0 7 208 0xf005d5080
1 0 0 7 96 0xf005bac80
1 0 0 7 112 0xf005be880
1 0 0 7 224 0xf005d8c80
1 0 0 7 240 0xf005dc880
1 0 0 7 0 0xf005a4480
1 0 0 7 16 0xf005a8080
1 0 0 7 160 0xf005c9c80
1 0 0 7 176 0xf005cd880
1 0 0 7 32 0xf005abc80
1 0 0 7 48 0xf005af880
1 0 0 7 64 0xf005b3480
1 0 0 7 80 0xf005b7080
1 0 0 12 0 0xf006d0280
1 0 0 12 16 0xf006d3e80
1 0 0 12 32 0xf006d7a80
1 0 0 12 48 0xf006db680
1 0 0 12 128 0xf006ee280
1 0 0 12 144 0xf006f1e80
1 0 0 12 224 0xf00704a80
1 0 0 12 240 0xf00708680
1 0 0 12 160 0xf006f5a80
1 0 0 12 176 0xf006f9680
1 0 0 12 64 0xf006df280
1 0 0 12 80 0xf006e2e80
1 0 0 12 96 0xf006e6a80
1 0 0 12 112 0xf006ea680
1 0 0 12 192 0xf006fd280
1 0 0 12 208 0xf00700e80
0 0 0 13 160 0xf00306b00
0 0 0 13 176 0xf00306f00
0 0 0 13 192 0xf00307300
0 0 0 13 208 0xf00307700
0 0 0 13 64 0xf00305300
0 0 0 13 80 0xf00305700
0 0 0 13 224 0xf00307b00
0 0 0 13 240 0xf00307f00
0 0 0 13 0 0xf00304300
0 0 0 13 16 0xf00304700
0 0 0 13 32 0xf00304b00
0 0 0 13 48 0xf00304f00
0 0 0 13 128 0xf00306300
0 0 0 13 144 0xf00306700
0 0 0 13 96 0xf00305b00
0 0 0 13 112 0xf00305f00
0 0 0 8 0 0xf00300200
0 0 0 8 16 0xf00300600
0 0 0 8 64 0xf00301200
0 0 0 8 80 0xf00301600
0 0 0 8 160 0xf00302a00
0 0 0 8 176 0xf00302e00
0 0 0 8 192 0xf00303200
0 0 0 8 208 0xf00303600
0 0 0 8 32 0xf00300a00
0 0 0 8 48 0xf00300e00
0 0 0 8 128 0xf00302200
0 0 0 8 144 0xf00302600
0 0 0 8 224 0xf00303a00
0 0 0 8 240 0xf00303e00
1 0 0 13 96 0xf00722a80
1 0 0 13 112 0xf00726680
1 0 0 13 0 0xf0070c280
1 0 0 13 16 0xf0070fe80
1 0 0 13 64 0xf0071b280
1 0 0 13 80 0xf0071ee80
1 0 0 13 32 0xf00713a80
1 0 0 13 48 0xf00717680
1 0 0 13 192 0xf00739280
1 0 0 13 208 0xf0073ce80
1 0 0 13 128 0xf0072a280
1 0 0 13 144 0xf0072de80
1 0 0 13 160 0xf00731a80
1 0 0 13 176 0xf00735680
1 0 0 13 224 0xf00740a80
1 0 0 13 240 0xf00744680
1 0 0 8 128 0xf005fe480
1 0 0 8 144 0xf00602080
1 0 0 8 32 0xf005e7c80
1 0 0 8 48 0xf005eb880
1 0 0 8 224 0xf00614c80
1 0 0 8 240 0xf00618880
1 0 0 8 96 0xf005f6c80
1 0 0 8 112 0xf005fa880
1 0 0 8 64 0xf005ef480
1 0 0 8 80 0xf005f3080
1 0 0 8 0 0xf005e0480
1 0 0 8 16 0xf005e4080
1 0 0 8 160 0xf00605c80
1 0 0 8 176 0xf00609880
1 0 0 8 192 0xf0060d480
1 0 0 8 208 0xf00611080
0 0 0 14 32 0xf00304b80
0 0 0 14 48 0xf00304f80
0 0 0 14 0 0xf00304380
0 0 0 14 16 0xf00304780
0 0 0 14 160 0xf00306b80
0 0 0 14 176 0xf00306f80
0 0 0 14 128 0xf00306380
0 0 0 14 144 0xf00306780
0 0 0 14 224 0xf00307b80
0 0 0 14 240 0xf00307f80
0 0 0 14 192 0xf00307380
0 0 0 14 208 0xf00307780
0 0 0 14 96 0xf00305b80
0 0 0 14 112 0xf00305f80
0 0 0 14 64 0xf00305380
0 0 0 14 80 0xf00305780
1 0 0 14 160 0xf0076da80
1 0 0 14 176 0xf00771680
1 0 0 14 64 0xf00757280
1 0 0 14 80 0xf0075ae80
1 0 0 14 0 0xf00748280
1 0 0 14 16 0xf0074be80
1 0 0 14 32 0xf0074fa80
1 0 0 14 48 0xf00753680
1 0 0 14 96 0xf0075ea80
1 0 0 14 112 0xf00762680
1 0 0 14 128 0xf00766280
1 0 0 14 144 0xf00769e80
1 0 0 14 224 0xf0077ca80
1 0 0 14 240 0xf00780680
1 0 0 14 192 0xf00775280
1 0 0 14 208 0xf00778e80
0 0 0 9 0 0xf00300200
0 0 0 9 16 0xf00300600
0 0 0 9 128 0xf00302200
0 0 0 9 144 0xf00302600
0 0 0 9 224 0xf00303a00
0 0 0 9 240 0xf00303e00
0 0 0 9 32 0xf00300a00
0 0 0 9 48 0xf00300e00
0 0 0 9 160 0xf00302a00
0 0 0 9 176 0xf00302e00
0 0 0 9 96 0xf00301a00
0 0 0 9 112 0xf00301e00
0 0 0 9 192 0xf00303200
0 0 0 9 208 0xf00303600
0 0 0 9 64 0xf00301200
0 0 0 9 80 0xf00301600
0 0 0 15 0 0xf00304380
0 0 0 15 16 0xf00304780
0 0 0 15 64 0xf00305380
0 0 0 15 80 0xf00305780
0 0 0 15 160 0xf00306b80
0 0 0 15 176 0xf00306f80
0 0 0 15 32 0xf00304b80
0 0 0 15 48 0xf00304f80
0 0 0 15 192 0xf00307380
0 0 0 15 208 0xf00307780
0 0 0 15 128 0xf00306380
0 0 0 15 144 0xf00306780
0 0 0 15 96 0xf00305b80
0 0 0 15 112 0xf00305f80
0 0 0 15 224 0xf00307b80
0 0 0 15 240 0xf00307f80
1 0 0 9 32 0xf00623c80
1 0 0 9 48 0xf00627880
1 0 0 9 160 0xf00641c80
1 0 0 9 176 0xf00645880
1 0 0 9 224 0xf00650c80
1 0 0 9 240 0xf00654880
1 0 0 9 64 0xf0062b480
1 0 0 9 80 0xf0062f080
1 0 0 9 0 0xf0061c480
1 0 0 9 16 0xf00620080
1 0 0 9 128 0xf0063a480
1 0 0 9 144 0xf0063e080
1 0 0 9 96 0xf00632c80
1 0 0 9 112 0xf00636880
1 0 0 9 192 0xf00649480
1 0 0 9 208 0xf0064d080
1 0 0 15 32 0xf0078ba80
1 0 0 15 48 0xf0078f680
1 0 0 15 64 0xf00793280
1 0 0 15 80 0xf00796e80
1 0 0 15 0 0xf00784280
1 0 0 15 16 0xf00787e80
1 0 0 15 160 0xf007a9a80
1 0 0 15 176 0xf007ad680
1 0 0 15 96 0xf0079aa80
1 0 0 15 112 0xf0079e680
1 0 0 15 128 0xf007a2280
1 0 0 15 144 0xf007a5e80
1 0 0 15 224 0xf007b8a80
1 0 0 15 240 0xf007bc680
1 0 0 15 192 0xf007b1280
1 0 0 15 208 0xf007b4e80
0 0 0 10 0 0xf00300280
0 0 0 10 16 0xf00300680
0 0 0 10 64 0xf00301280
0 0 0 10 80 0xf00301680
0 0 0 10 128 0xf00302280
0 0 0 10 144 0xf00302680
0 0 0 10 160 0xf00302a80
0 0 0 10 176 0xf00302e80
0 0 0 10 32 0xf00300a80
0 0 0 10 48 0xf00300e80
0 0 0 10 224 0xf00303a80
0 0 0 10 240 0xf00303e80
0 0 0 10 192 0xf00303280
0 0 0 10 208 0xf00303680
0 0 0 10 96 0xf00301a80
0 0 0 10 112 0xf00301e80
1 0 0 10 128 0xf00676480
1 0 0 10 144 0xf0067a080
1 0 0 10 64 0xf00667480
1 0 0 10 80 0xf0066b080
1 0 0 10 0 0xf00658480
1 0 0 10 16 0xf0065c080
1 0 0 10 32 0xf0065fc80
1 0 0 10 48 0xf00663880
1 0 0 10 192 0xf00685480
1 0 0 10 208 0xf00689080
1 0 0 10 160 0xf0067dc80
1 0 0 10 176 0xf00681880
1 0 0 10 224 0xf0068cc80
1 0 0 10 240 0xf00690880
1 0 0 10 96 0xf0066ec80
1 0 0 10 112 0xf00672880
0 0 0 11 32 0xf00300a80
0 0 0 11 48 0xf00300e80
0 0 0 11 64 0xf00301280
0 0 0 11 80 0xf00301680
0 0 0 11 224 0xf00303a80
0 0 0 11 240 0xf00303e80
0 0 0 11 160 0xf00302a80
0 0 0 11 176 0xf00302e80
0 0 0 11 128 0xf00302280
0 0 0 11 144 0xf00302680
0 0 0 11 96 0xf00301a80
0 0 0 11 112 0xf00301e80
0 0 0 11 0 0xf00300280
0 0 0 11 16 0xf00300680
0 0 0 11 192 0xf00303280
0 0 0 11 208 0xf00303680
1 0 0 11 32 0xf0069bc80
1 0 0 11 48 0xf0069f880
1 0 0 11 64 0xf006a3480
1 0 0 11 80 0xf006a7080
1 0 0 11 160 0xf006b9c80
1 0 0 11 176 0xf006bd880
1 0 0 11 0 0xf00694480
1 0 0 11 16 0xf00698080
1 0 0 11 96 0xf006aac80
1 0 0 11 112 0xf006ae880
1 0 0 11 128 0xf006b2480
1 0 0 11 144 0xf006b6080
1 0 0 11 192 0xf006c1480
1 0 0 11 208 0xf006c5080
1 0 0 11 224 0xf006c8c80
1 0 0 11 240 0xf006cc880
0 0 0 12 0 0xf00300300
0 0 0 12 16 0xf00300700
0 0 0 12 96 0xf00301b00
0 0 0 12 112 0xf00301f00
0 0 0 12 64 0xf00301300
0 0 0 12 80 0xf00301700
0 0 0 12 160 0xf00302b00
0 0 0 12 176 0xf00302f00
0 0 0 12 128 0xf00302300
0 0 0 12 144 0xf00302700
0 0 0 12 192 0xf00303300
0 0 0 12 208 0xf00303700
0 0 0 12 224 0xf00303b00
0 0 0 12 240 0xf00303f00
0 0 0 12 32 0xf00300b00
0 0 0 12 48 0xf00300f00
1 0 0 12 0 0xf006d0480
1 0 0 12 16 0xf006d4080
1 0 0 12 96 0xf006e6c80
1 0 0 12 112 0xf006ea880
1 0 0 12 224 0xf00704c80
1 0 0 12 240 0xf00708880
1 0 0 12 64 0xf006df480
1 0 0 12 80 0xf006e3080
1 0 0 12 128 0xf006ee480
1 0 0 12 144 0xf006f2080
1 0 0 12 32 0xf006d7c80
1 0 0 12 48 0xf006db880
1 0 0 12 160 0xf006f5c80
1 0 0 12 176 0xf006f9880
1 0 0 12 192 0xf006fd480
1 0 0 12 208 0xf00701080
0 0 0 13 32 0xf00300b00
0 0 0 13 48 0xf00300f00
0 0 0 13 224 0xf00303b00
0 0 0 13 240 0xf00303f00
0 0 0 13 192 0xf00303300
0 0 0 13 208 0xf00303700
0 0 0 13 96 0xf00301b00
0 0 0 13 112 0xf00301f00
0 0 0 13 128 0xf00302300
0 0 0 13 144 0xf00302700
0 0 0 13 160 0xf00302b00
0 0 0 13 176 0xf00302f00
0 0 0 13 64 0xf00301300
0 0 0 13 80 0xf00301700
0 0 0 13 0 0xf00300300
0 0 0 13 16 0xf00300700
1 0 0 13 32 0xf00713c80
1 0 0 13 48 0xf00717880
1 0 0 13 0 0xf0070c480
1 0 0 13 16 0xf00710080
1 0 0 13 64 0xf0071b480
1 0 0 13 80 0xf0071f080
1 0 0 13 128 0xf0072a480
1 0 0 13 144 0xf0072e080
1 0 0 13 160 0xf00731c80
1 0 0 13 176 0xf00735880
1 0 0 13 192 0xf00739480
1 0 0 13 208 0xf0073d080
1 0 0 13 224 0xf00740c80
1 0 0 13 240 0xf00744880
1 0 0 13 96 0xf00722c80
1 0 0 13 112 0xf00726880
0 0 0 14 32 0xf00300b80
0 0 0 14 48 0xf00300f80
0 0 0 14 192 0xf00303380
0 0 0 14 208 0xf00303780
0 0 0 14 160 0xf00302b80
0 0 0 14 176 0xf00302f80
0 0 0 14 96 0xf00301b80
0 0 0 14 112 0xf00301f80
0 0 0 14 128 0xf00302380
0 0 0 14 144 0xf00302780
0 0 0 14 224 0xf00303b80
0 0 0 14 240 0xf00303f80
0 0 0 14 0 0xf00300380
0 0 0 14 16 0xf00300780
0 0 0 14 64 0xf00301380
0 0 0 14 80 0xf00301780
1 0 0 14 32 0xf0074fc80
1 0 0 14 48 0xf00753880
1 0 0 14 96 0xf0075ec80
1 0 0 14 112 0xf00762880
1 0 0 14 0 0xf00748480
1 0 0 14 16 0xf0074c080
1 0 0 14 160 0xf0076dc80
1 0 0 14 176 0xf00771880
1 0 0 14 128 0xf00766480
1 0 0 14 144 0xf0076a080
1 0 0 14 224 0xf0077cc80
1 0 0 14 240 0xf00780880
1 0 0 14 192 0xf00775480
1 0 0 14 208 0xf00779080
1 0 0 14 64 0xf00757480
1 0 0 14 80 0xf0075b080
0 0 0 15 0 0xf00300380
0 0 0 15 16 0xf00300780
0 0 0 15 192 0xf00303380
0 0 0 15 208 0xf00303780
0 0 0 15 96 0xf00301b80
0 0 0 15 112 0xf00301f80
0 0 0 15 128 0xf00302380
0 0 0 15 144 0xf00302780
0 0 0 15 160 0xf00302b80
0 0 0 15 176 0xf00302f80
0 0 0 15 32 0xf00300b80
0 0 0 15 48 0xf00300f80
0 0 0 15 64 0xf00301380
0 0 0 15 80 0xf00301780
0 0 0 15 224 0xf00303b80
0 0 0 15 240 0xf00303f80
1 0 0 15 0 0xf00784480
1 0 0 15 16 0xf00788080
1 0 0 15 96 0xf0079ac80
1 0 0 15 112 0xf0079e880
1 0 0 15 192 0xf007b1480
1 0 0 15 208 0xf007b5080
1 0 0 15 32 0xf0078bc80
1 0 0 15 48 0xf0078f880
1 0 0 15 64 0xf00793480
1 0 0 15 80 0xf00797080
1 0 0 15 160 0xf007a9c80
1 0 0 15 176 0xf007ad880
1 0 0 15 128 0xf007a2480
1 0 0 15 144 0xf007a6080
1 0 0 15 224 0xf007b8c80
1 0 0 15 240 0xf007bc880
